D:\homeProjects\src\main\java\app\exception\EmployeeNotFoundException.java
D:\homeProjects\src\main\java\app\service\DummyUserService.java
D:\homeProjects\src\main\java\app\model\entity\User.java
D:\homeProjects\src\main\java\app\App.java
D:\homeProjects\src\main\java\app\controller\mvc\FirstController.java
D:\homeProjects\src\main\java\app\exception\EmployeeNotFoundAdvice.java
D:\homeProjects\src\main\java\app\controller\web\ImgController.java
D:\homeProjects\src\main\java\app\util\converter\EmployeeModelAssembler.java
D:\homeProjects\src\main\java\app\controller\web\EmployeeController.java
D:\homeProjects\src\main\java\app\service\UserService.java
D:\homeProjects\src\main\java\app\util\converter\UserDTOConverter.java
D:\homeProjects\src\main\java\app\model\dto\EmployeeDTO.java
D:\homeProjects\src\main\java\app\controller\mvc\HomeController.java
D:\homeProjects\src\main\java\app\configuration\AppConfig.java
